{
  "j_AKV":0,
  "j_AdresSobstvennika_KodRegiona":77000000000,
  "j_Vladelec_F":"Зырянов",
  "j_Vladelec_I":"Владимир",
  "j_Vladelec_O":"Владимирович",
  "j_BazovayaStavka":4118.0,
  "j_KoeffOgrVod":1.0,
  "j_KoeffTerrIsp":2.0,
  "j_KoeffBM":0.85,
  "j_KoeffMoshhnost":1.2,
  "j_KoeffNarushenij":1.0,
  "j_KoeffPr":1.0,
  "j_KoeffSrokStrah":1.0,
  "j_KoeffVS":1.04,
  "j_KoeffSezonIsp":1.0,
  "j_VoditeliDogStrah_COUNT":1,
  "j_MinVozrastVodSoStazhemMenee2Let":28,
  "j_MinStazhVoditelej":2,
  "j_KategoriyaTS_OSAGO":"B",
  "j_ProdavecOSAGO_IDObekta":81932,
  "j_Moshhnost":116,
  "j_DataPodpisaniya":"05.07.2019",
  "j_DataNachalaDejstviya":"22.07.2019",
  "j_Strahovatel_F":"Зырянов",
  "j_Strahovatel_I":"Владимир",
  "j_Strahovatel_O":"Владимирович",
  "j_RegistrZnak":"О366ХР177",
  "j_MarkaPTS":"Opel",
  "j_ModelPTS":"ASTRA",
  "j_GodPostrojki":2007,
  "j_VoditeliDogStrah_0_Voditel_F":"Зырянов",
  "j_VoditeliDogStrah_0_Voditel_I":"Владимир",
  "j_VoditeliDogStrah_0_Voditel_O":"Владимирович",
  "j_VoditeliDogStrah_1_Voditel_F":null,
  "j_VoditeliDogStrah_1_Voditel_I":null,
  "j_VoditeliDogStrah_1_Voditel_O":null,
  "j_VoditeliDogStrah_2_Voditel_F":null,
  "j_VoditeliDogStrah_2_Voditel_I":null,
  "j_VoditeliDogStrah_2_Voditel_O":null,
  "j_VoditeliDogStrah_3_Voditel_F":null,
  "j_VoditeliDogStrah_3_Voditel_I":null,
  "j_VoditeliDogStrah_3_Voditel_O":null,
  "j_VoditeliDogStrah_4_Voditel_F":null,
  "j_VoditeliDogStrah_4_Voditel_I":null,
  "j_VoditeliDogStrah_4_Voditel_O":null,
  "j_NomerPredDog":null,
  "j_ZHRAKuratorDogovora":27488,
  "j_VIN":"W0L0AHL4882019257",
  "j_seria_pass":"4511",
  "j_own_gender":"M",
  "j_strahovatel_gender":"M",
  "j_d_birth":"04.08.1990",
  "j_ProdavecOSAGO_F":"Рубанова",
  "j_ProdavecOSAGO_I":"Карина",
  "j_ProdavecOSAGO_O":"Сергеевна",
  "contractId":114084127
}