{
  "dealerIs": "",
  "idFilial": "",
  "idRegion": "",
  "regionInspection": "",
  "markAndModel": 20666,
  "markAndModel_pretty": "Audi A4",
  "email": "elvin.gulmaliev@soglasie.ru",
  "contactNumber": "9114148692",
  "name": "Эльвин",
  "surname": "Гульмалиев",
  "patronymic": "Гуршадович",
  "owner": "Жезэоюсгст Юыкпрпзэыы Фумьэеюдюж",
  "ownerBirth": "14.05.1979",
  "pasSeriesOwn": "1525",
  "pasNumberOwn": "557282",
  "rewardOwn": "",
  "damageOwn": "",
  "lossCountOwn": "",
  "gosNumber": "А182АА77",
  "vin": "16441838767132562",
  "sts": "",
  "insurant": "Жезэоюсгст Юыкпрпзэыы Фумьэеюдюж",
  "insurantBirth": "14.05.1979",
  "pasSeriesIns": "1525",
  "pasNumberIns": "557282",
  "rewardIns": "",
  "damageIns": "",
  "lossCountIns": "",
  "field7166Plug": "Жезэоюсгст Юыкпрпзэыы Фумьэеюдюж;14.05.1979;;;",
  "numPts": "1232123321",
  "declaredCost": 2200000,
  "idContract": 111133761
}