{
  "definitions": {},
  "$schema": "http://json-schema.org/draft-07/schema#",
  "$id": "http://example.com/root.json",
  "type": "object",
  "title": "The Root Schema",
  "required": [
    "scoringid",
    "error"
  ],
  "properties": {
    "scoringid": {
      "$id": "#/properties/scoringid",
      "type": "string",
      "title": "The Scoringid Schema",
      "default": "",
      "examples": [
        "S7037C6H4F51"
      ],
      "pattern": "^(.*)$"
    },
    "error": {
      "$id": "#/properties/error",
      "type": "array",
      "title": "The Error Schema"
    }
  }
}