{
  "definitions": {},
  "$schema": "http://json-schema.org/draft-07/schema#",
  "$id": "http://example.com/root.json",
  "type": "object",
  "title": "The Root Schema",
  "required": [
    "res",
    "findtaxi",
    "datecalc",
    "statenumber"
  ],
  "properties": {
    "res": {
      "$id": "#/properties/res",
      "type": "integer",
      "title": "The Res Schema",
      "default": 0,
      "maximum": 1,
      "examples": [
        1
      ]
    },
    "findtaxi": {
      "$id": "#/properties/findtaxi",
      "type": "boolean",
      "title": "The Findtaxi Schema",
      "default": false,
      "examples": [
        true
      ]
    },
    "datecalc": {
      "$id": "#/properties/datecalc",
      "type": "string",
      "title": "The Datecalc Schema",
      "default": "",
      "examples": [
        "2017-11-01T00:00:00+03:00"
      ],
      "pattern": "^(.*)$"
    },
    "statenumber": {
      "$id": "#/properties/statenumber",
      "type": "string",
      "title": "The Statenumber Schema",
      "default": "",
      "examples": [
        "К473ТС152"
      ],
      "pattern": "^(.*)$"
    }
  }
}