{
  "operationName": "getPersonById",
  "variables": {
    "id": "%s"
  },
  "query": "query getPersonById($id: Long!, $object_token: String) {\n  debug {\n    error(type: SECURITY)\n    __typename\n  }\n  entityObject(object: {IDObekta: $id, SokrSushhnostiObekta: \"ФЛ\", object_token: $object_token}) {\n    ... on Sogins_FL {\n      ...mainPersonInfo\n      Kontakty {\n        ...k\n        __typename\n      }\n      Udostovereniya {\n        ...Udostovereniya\n        __typename\n      }\n      Adresa {\n        ...adresa\n        __typename\n      }\n      __typename\n    }\n    __typename\n  }\n}\n\nfragment Udostovereniya on Sogins_UdostovereniyaFL {\n  IDObekta\n  Nomer\n  Seriya\n  Data\n  Vydan\n  Osnovnoj\n  Vid {\n    IDObekta\n    Naim\n    __typename\n  }\n  Security {\n    canread\n    canwrite\n    confirmed\n    owner\n    redaction\n    __typename\n  }\n  __typename\n}\n\nfragment k on Sogins_Kontakty {\n  IDObekta\n  VidKontaktov {\n    IDObekta\n    Naim\n    TipKontakta\n    __typename\n  }\n  Osnovnoj\n  Zarubezhnyj\n  Znachenie\n  Dobavochnyj\n  Security {\n    canread\n    canwrite\n    confirmed\n    owner\n    redaction\n    canreadReason\n    __typename\n  }\n  __typename\n}\n\nfragment adresa on Sogins_Adres {\n  IDObekta\n  KodStrany\n  KodRegiona\n  KodRajona\n  KodGoroda\n  KodMesta\n  KodUlicy\n  UlicaStroka\n  GorodStroka\n  MestoStroka\n  RajonStroka\n  RegionStroka\n  Dom\n  Korpus\n  Stroenie\n  Kvartira\n  PochtovyjIndeks\n  Adres\n  TipAdresa {\n    IDObekta\n    Naim\n    __typename\n  }\n  Security {\n    canread\n    canwrite\n    confirmed\n    owner\n    redaction\n    __typename\n  }\n  __typename\n}\n\nfragment mainPersonInfo on Sogins_FL {\n  IDObekta\n  object_token\n  IDSushhnostiObekta\n  SokrSushhnostiObekta\n  SozdanCherezWEB\n  Imya\n  Otchestvo\n  NaFa\n  InImya\n  InFamiliya\n  DataRozhdeniya\n  Pol\n  Rezident\n  PBOYUL\n  Razdel\n  INN\n  OGRNIP\n  Primechanie\n  Security {\n    used\n    owner\n    __typename\n  }\n  __typename\n}\n"
}